Facilities,Name,GPS,category,category-bk
Future project,GRAND BANGSUE INTERCHANGE,"13.803644, 100.542163",extra Group (ไม่มีผลในการคำนวน แสดงผลในแผนที่เฉยๆ),future-project
,MIXED USE KM. 11,"13.820669, 100.552776",extra Group (ไม่มีผลในการคำนวน แสดงผลในแผนที่เฉยๆ),future-project
,MOCHIT COMPLEX : MIXED USE COMPLEX,"13.806566, 100.557169",extra Group (ไม่มีผลในการคำนวน แสดงผลในแผนที่เฉยๆ),future-project
ห้างสรรพสินค้า,CENTRAL LADPRAO,"13.816276,100.560849",shopping,shopping
,UNION MALL,"13.813208, 100.562131",shopping,shopping
Local Shopping,JJ MARKET,"13.799921, 100.550863",shopping,shopping
ตลาด,ORTORKOR MARKET,"13.797261, 100.548314",shopping,shopping
โรงเรียน,CIVIL AVIATION TRAINING CENTER,"13.800594, 100.553344",education,education
,HORWANG SCHOOL,"13.818246, 100.560855",education,education
,SAINT JOHN’S INTERNATIONAL,"13.809468, 100.562979",education,education
Big office building,SUN TOWER,"13.808048, 100.558828",office,office
,TMB,"13.808296, 100.557798",office,office
,SJ INFINITE ONE BUSINESS COMPLEX,"13.809285, 100.559082",office,office
,THAI AIRWAYS,"13.804742, 100.561314",office,office
,PTT HEAD OFFICE,"13.817970, 100.557531",office,office
,ENERGY COMPLEX,"13.819341, 100.557263",office,office
,SHINAWATRA 3,"13.823186, 100.559615",office,office
,BTS HEADQUARTER,"13.804701, 100.556239",office,office
,INTOUCH TOWER,"13.809374, 100.559051",office,office
สวนสาธารณะ,CHATUCHAK PARK,"13.808548, 100.556432",park,park
,WACHIRABENCHATHAT PARK,"13.813247, 100.552881",park,park
,QUEEN SIRIKIT PARK,"13.807556, 100.550498",park,park
Local Shopping,BIG C SUPERCENTER (SAPHAN KHWAI BRANCH),"13.791320, 100.549579",shopping,shopping
ตลาด,SAPHAN KHWAI MARKET,"13.790403, 100.547909",shopping,shopping
โรงพยาบาล,PAOLO MEMORIAL HOSPITAL,"13.792301, 100.550024",hospital,hospital
Big office building,SHINAWATRA TOWER 2,"13.786404, 100.546576",office,office
,GOVERNMENT SAVINGS BANK HEAD OFFICE,"13.787649, 100.548897",office,office
,ESV TOWER,"13.786002, 100.546395",office,office
Future project,AREE HILL,"13.784513, 100.546617",extra Group (ไม่มีผลในการคำนวน แสดงผลในแผนที่เฉยๆ),future-project
Community Mall,VILLA AREE,"13.779757, 100.544950",shopping,shopping
โรงพยาบาล,PRASARNMIT HOSPITAL,"13.784973, 100.546081",hospital,hospital
,NAWUT SOMDEJ YAH HOSPITAL,"13.784383, 100.545847",hospital,hospital
,VICHAIYUT HOSPITAL,"13.780460, 100.532835",hospital,hospital
Big office building,SME TOWER,"13.771033, 100.540983",office,office
,PIYAWAN TOWER,"13.779868, 100.544511",office,office
,PHAHOLYOTHIN PLACE,"13.782890, 100.546287",office,office
,AIS TOWER 1,"13.783427, 100.546440",office,office
,IBM BUILDING,"13.780948, 100.545506",office,office
,EXIM THAILAND,"13.778843, 100.543940",office,office
Community Mall,THE SEASONS AREE,"13.769169, 100.540147",shopping,shopping
ตลาด,SANAM PAO FRESH MARKET,"13.768293, 100.539889",shopping,shopping
โรงพยาบาล,PHYATHAI HOSPITAL 2,"13.769888, 100.540502",hospital,hospital
Big office building,SM TOWER,"13.770971, 100.540972",office,office
,SPE TOWER,"13.774167, 100.543148",office,office
,ROYAL THAI ARMY RADIO AND TV,"13.770874, 100.541732",office,office
,GIFFARINE BUILDING,"13.775585, 100.543021",office,office
,SAENG SOM BUILDING,"13.801085, 100.560015",office,office
,YAKULT BUILDING,"13.772575, 100.541948",office,office
ห้างสรรพสินค้า,CENTURY MALL,"13.761542, 100.537110",shopping,shopping
,KING POWER,"13.760534, 100.538016",shopping,shopping
Local Shopping,CENTER ONE,"13.763973, 100.539367",shopping,shopping
โรงเรียน,PHRAMONGKUTKLAO COLLEGE OF MEDICINE,"13.769158, 100.530523",education,education
,BOROMARAJONANI COLLEGE,"13.762319, 100.536455",education,education
,"FACULTY OF DENTISTRY, MAHIDOL UNIVERSITY","13.763882, 100.533165",education,education
โรงพยาบาล,RAJAVITHI HOSPITAL,"13.764326, 100.536767",hospital,hospital
,PHRAMONGKUTKLAO HOSPITAL,"13.767924, 100.534505",hospital,hospital
,QUEEN SIRIKIT NATIONAL INSTITUTE OF CHILD HEALTH,"13.765936, 100.535301",hospital,hospital
,RAMATHIBODI HOSPITAL,"13.766022, 100.526775",hospital,hospital
,"FACULTY OF TROPICAL MEDICINE, MAHIDOL UNIVERSITY","13.765728, 100.533392",hospital,hospital
Big office building,PHAYATHAI BUILDING,"13.756187, 100.532824",office,office
สวนสาธารณะ,SANTIPHAP PARK,"13.761599, 100.540783",park,park
Future project,PHAYATHAI COMPLEX : MIXED USE COMPLEX,"13.756902, 100.533353",extra Group (ไม่มีผลในการคำนวน แสดงผลในแผนที่เฉยๆ),future-project
โรงเรียน,SRI AUYDHYA SCHOOL,"13.758487, 100.539251",education,education
,AMNUAY SILPA SCHOOL,"13.760742, 100.527577",education,education
,"FACULTY OF SCIENCE, MAHIDOL UNIVERSITY","13.765066, 100.526316",education,education
,"FACULTY OF PHARMACY, MAHIDOL UNIVERSITY","13.761130, 100.528783",education,education
โรงพยาบาล,PHYATHAI HOSPITAL 1,"13.756147, 100.539124",hospital,hospital
,BHUMIRAJANAKARINDRA KIDNEY INSTITUTE HOSPITAL,"13.759909, 100.534483",hospital,hospital
,PRIEST HOSPITAL,"13.761859, 100.526498",hospital,hospital
Big office building,CP TOWER 3,"13.757792, 100.533758",office,office
,LERTPANYA BUILDING,"13.759504, 100.536530",office,office
,KSL TOWER,"13.757491, 100.537746",office,office
,PHAYATHAI PLAZA,"13.756187, 100.532760",office,office
,SRI AYUDHAYA BUILDING,"13.757784, 100.537377",office,office
,GYPSUM METROPOLITAN TOWER,"13.756427, 100.541740",office,office
,SIRIPINYO BUILDING,"13.758185, 100.535467",office,office
ห้างสรรพสินค้า,PANTIP PLAZA,"13.750425, 100.537351",shopping,shopping
,THE PLATINUM FASHION MALL,"13.749998, 100.539711",shopping,shopping
Local Shopping,COCOWALK,"13.751943, 100.532112",shopping,shopping
ตลาด,PRATU NAM,"13.750352, 100.540670",shopping,shopping
,KING PHET MARKET,"13.753693, 100.527878",shopping,shopping
โรงเรียน,VALAYA ALONGKORN RAJABHAT UNIVERSITY UNDER THE ROYAL PATRONAGE,"13.754394, 100.533483",education,education
Big office building,ASIA BUILDING,"13.752087, 100.531401",office,office
สวนสาธารณะ,CHALERM LA PARK,"13.749995, 100.531523",park,park
สถานทูต,EMBASSY OF THE REPUBLIC OF INDONESIA,"13.751229, 100.536543",embassy,embassy
Future project,THE MARKET,"13.704403, 100.493047",shopping,future-project
ห้างสรรพสินค้า,SIAM PARAGON,"13.746759, 100.535036",shopping,shopping
,SIAM CENTER,"13.746177, 100.532807",shopping,shopping
,SIAM DISCOVERY CENTER,"13.746418, 100.531600",shopping,shopping
,CENTERPOINT OF SIAM SQUARE,"13.744662, 100.532054",shopping,shopping
,CENTRAL WORLD,"13.746885, 100.539076",shopping,shopping
,PLATINUM,"13.750256, 100.539471",shopping,shopping
,PANTIP PLAZA,"13.750433, 100.537386",shopping,shopping
,BIG C SUPERMARKET,"13.747150, 100.541184",shopping,shopping
,MBK CENTER,"13.744389, 100.529836",shopping,shopping
Community Mall,SIAM SQUARE ONE,"13.744879, 100.533859",shopping,shopping
Local Shopping,SIAM SQUARE,"13.744662, 100.532054",shopping,shopping
,SUANLUNG SQUARE,"13.743294, 100.524562",shopping,shopping
ตลาด,PRATUNAM,"13.750413, 100.540596",shopping,shopping
โรงเรียน,CHULALONGKORN UNIVERSITY,"13.738662, 100.532388",education,education
,TRIAM UDOM SUKSA SCHOOL,"13.740455, 100.530972",education,education
,PATUMWAN DEMONSTRATION SCHOOL,"13.740160, 100.534249",education,education
,CHULALONGKORN UNIVERSITY DEMONSTRATION SCHOOL,"13.736455, 100.527047",education,education
โรงพยาบาล,POLICE GENERAL HOSPITAL,"13.744271, 100.539385",hospital,hospital
Big office building,SIAM PIWAT TOWER,"13.746590, 100.531840",office,office
,THE OFFICES AT CENTRALWORLD,"13.746576, 100.538764",office,office
,SIAMKIT BUILDING,"13.744090, 100.534539",office,office
,WITTAYAKIT BUILDING,"13.743710, 100.532948",office,office
สวนสาธารณะ,CHAMCHURI PARK,"13.739386, 100.523767",park,park
Future project,GAYSORN VILLAGE,"13.744925, 100.540735",shopping,future-project
,LANGSUAN VILLAGE,"13.737770, 100.542887",extra Group (ไม่มีผลในการคำนวน แสดงผลในแผนที่เฉยๆ),future-project
ห้างสรรพสินค้า,CENTRAL WORLD,"13.746184, 100.540005",shopping,shopping
,AMARIN PLAZA,"13.744040, 100.541416",shopping,shopping
,GAYSORN,"13.744915, 100.540692",shopping,shopping
,CENTRAL CHIDLOM,"13.744222, 100.544399",shopping,shopping
,MERCURY VILLE,"13.743343, 100.544227",shopping,shopping
Community Mall,THE PORTICO LANGSUAN,"13.742196, 100.543942",shopping,shopping
,19 AT CHIDLOM,"13.746361, 100.544456",shopping,shopping
โรงเรียน,MATER DEI SCHOOL,"13.743842, 100.543140",education,education
โรงพยาบาล,JETANIN INSTITUTE FOR ASSISTED REPRODUCTION,"13.747125, 100.544715",hospital,hospital
Big office building,AMARIN TOWER,"13.743644, 100.541420",office,office
,GARSORN OFFICE TOWER 2,"13.745991, 100.540838",office,office
,GAYSORN TOWER,"13.745983, 100.540963",office,office
,MERCURY TOWER,"13.743168, 100.544187",office,office
,PLOENCHIT TOWER,"13.743457, 100.544816",office,office
,CIMB THAI HEAD OFFICE,"13.740580, 100.543021",office,office
,SCB LIFE ASSURANCE,"13.748966, 100.545187",office,office
,KPI TOWER,"13.749237, 100.544153",office,office
,PRESIDENT TOWER,"13.745323, 100.541339",office,office
,MANEEYA CENTER,"13.743994, 100.542027",office,office
,VANISSA BUILDING,"13.745663, 100.544607",office,office
,TONSON TOWER,"13.743306, 100.545903",office,office
,THAI INSURANCE BUILDING,"13.741687, 100.543235",office,office
สถานทูต,THE EMBASSY OF THE KINGDOM OF THE NETHERLANDS,"13.739302, 100.544613",embassy,embassy
,EMBASSY OF FINLAND,"13.740975, 100.548678",embassy,embassy
Future project,PLOENCHIT CITY,"13.743549, 100.544708",extra Group (ไม่มีผลในการคำนวน แสดงผลในแผนที่เฉยๆ),future-project
,BDMS WELLNESS CLINIC,"13.746094, 100.547068",hospital,future-project
ห้างสรรพสินค้า,CENTRAL EMBASSY,"13.743957, 100.546301",shopping,shopping
Local Shopping,"HOMEPRO PLUS,PLOENCHIT","13.743580, 100.547831",shopping,shopping
โรงเรียน,MULBERRY HOUSE INTERNATIONAL PRE SCHOOL,"13.742612, 100.545581",education,education
,RC INTERNATIONAL SCHOOL,"13.739264, 100.550366",education,education
Big office building,PARK VENTURE,"13.742893, 100.547915",office,office
,ALL SEASONS PLACE,"13.739134, 100.547310",office,office
,WAVEPLACE,"13.743927, 100.547893",office,office
,GPF WITTHAYU TOWERS,"13.737441, 100.546982",office,office
,VANIT BUILDING,"13.748964, 100.547995",office,office
,MAHATUN PLAZA,"13.742352, 100.548794",office,office
,Q. HOUSE PLOENCHIT,"13.742411, 100.549932",office,office
,ATHENEE TOWER,"13.741170, 100.548233",office,office
,208 WIRELESS ROAD BUILDING,"13.739355, 100.546468",office,office
,SINDHORN TOWER,"13.735686, 100.545534",office,office
สถานทูต,"EMBASSY OF THE UNITED STATES, BANGKOK","13.736129, 100.546555",embassy,embassy
,"NEW ZEALAND EMBASSY, BANGKOK","13.739607, 100.547397",embassy,embassy
,BRITISH EMBASSY BANGKOK,"13.745112, 100.547544",embassy,embassy
,EMBASSY OF SWITZERLAND,"13.745448, 100.548138",embassy,embassy
,THE EMBASSY OF VIETNAM,"13.740489, 100.547216",embassy,embassy
,UAE EMBASSY,"13.739333, 100.547841",embassy,embassy
,KAZAKHSTAN EMBASSY,"13.737486, 100.547044",embassy,embassy
,THE CZECH REPUBLIC EMBASSY,"13.737437, 100.550874",embassy,embassy
,EMBASSY OF UKRAINE,"13.739560, 100.547544",embassy,embassy
,EMBASSY OF THE STATE OF QATAR,"13.738809, 100.547310",embassy,embassy
Community Mall,NANA SQUARE,"13.742489, 100.552704",shopping,shopping
,NANA PLAZA,"13.741227, 100.553229",shopping,shopping
ตลาด,NANA MARKET,"13.742790, 100.551300",shopping,shopping
โรงพยาบาล,BUMRUNGRAD INTERNATIONAL HOSPITAL,"13.746083, 100.552359",hospital,hospital
Big office building,KRUNGTHAI BANK PCL HEAD OFFICE,"13.743397, 100.552150",shopping,shopping
,THE TRENDY OFFICE BUILDING,"13.740496, 100.557944",shopping,shopping
,PLOENCHIT CENTER,"13.741595, 100.551431",shopping,shopping
,ONE PACIFIC PLACE,"13.740631, 100.555041",shopping,shopping
,TWO PACIFIC PLACE,"13.740652, 100.554988",shopping,shopping
สถานทูต,EMBASSY OF SWEDEN,"13.740165, 100.554237",embassy,embassy
,EMBASSY OF PAKISTAN,"13.745165, 100.553550",embassy,embassy
ห้างสรรพสินค้า,TERMINAL 21,"13.737277, 100.560666",shopping,shopping
,ROBINSON ASOKE,"13.738169, 100.559315",shopping,shopping
Community Mall,MID TOWN ASOKE,"13.743734, 100.561896",shopping,shopping
Local Shopping,KOREAN TOWN,"13.738492, 100.558070",shopping,shopping
,PRASARNMIT PLAZA,"13.740543, 100.562951",shopping,shopping
ตลาด,ASOKE MARKET,"13.737075, 100.561230",shopping,shopping
,RUAMSAP MARKET,"13.744629, 100.561745",shopping,shopping
โรงเรียน,SRINAKHARINWIROT UNIVERSITY,"13.745470, 100.565295",education,education
,SRINAKHARINWIROT UNIVERSITY PRASARNMIT DEMONSTRATION SCHOOL,"13.743296, 100.565767",education,education
,WATTANA WITTAYA ACADEMMY,"13.744226, 100.560524",education,education
,SAINAMPEUNG SCHOOL,"13.727550, 100.565018",education,education
,SAINAMTIP SCHOOL,"13.727805, 100.565264",education,education
Big office building,TIMES SQUARE BUILDING,"13.737723, 100.558813",office,office
,JASMINE CITY,"13.735531, 100.563109",office,office
,EXCHANGE TOWER,"13.735282, 100.561343",office,office
,INTERCHANGE TOWER,"13.736382, 100.561640",office,office
,SINO-THAI TOWER,"13.740085, 100.562284",office,office
,CTI TOWER,"13.732485, 100.560341",office,office
,UBC II BUILDING,"13.732470, 100.567588",office,office
,THE LAKES RATCHADA,"13.731727, 100.560224",office,office
,OCEAN TOWER 1,"13.730545, 100.560434",office,office
,OCEAN TOWER 2,"13.742683, 100.561446",office,office
,GLAS HAUS BUILDING,"13.735365, 100.563230",office,office
,SERM-MITR TOWER,"13.740792, 100.561593",office,office
,GMM GRAMMY,"13.743593, 100.562376",office,office
,RAJAPARK BUILDING,"13.741881, 100.561819",office,office
,PRIME BUILDING,"13.739802, 100.562082",office,office
,BB BUILDING,"13.743895, 100.562863",office,office
สถานทูต,EMBASSY OF INDIA,"13.742354, 100.563799",embassy,embassy
,THE REPUBLIC OF LEBANON,"13.732290, 100.560048",embassy,embassy
,SRI LANKA EMBASSY,"13.742680, 100.561871",embassy,embassy
,SPANISH EMBASSY,"13.731532, 100.560288",embassy,embassy
,CHILE EMBASSY,"13.737406, 100.550852",embassy,embassy
,PERU EMBASSY,"13.735618, 100.563376",embassy,embassy
ห้างสรรพสินค้า,THE EMPORIUM,"13.730210, 100.568845",shopping,shopping
,THE EMQUARTIER,"13.731504, 100.569298",shopping,shopping
Community Mall,RAIN HILL,"13.727753, 100.574060",shopping,shopping
,TAKA TOWN,"13.745302, 100.572513",shopping,shopping
Local Shopping,VILLA MARKET SUKHUMVIT 33,"13.732088, 100.567619",shopping,shopping
,UFM FUJI SUPER BRANCH 1,"13.732682, 100.568394",shopping,shopping
,TOP SUPER MARKET SUKHUMVIT 41,"13.729055, 100.572262",shopping,shopping
โรงเรียน,THE AMERICAN SCHOOL OF BANGKOK,"13.734500, 100.575533",education,education
,NEW BAMBINO INTERNATIONAL KINDERGARDEN,"13.738864, 100.577055",education,education
,THE FIRST STEPS INTERNATIONAL PRE-SCHOOL,"13.740647, 100.569099",education,education
,ANGLO SINGAPORE INTERNATIONAL SCHOOL,"13.688036, 100.609274",education,education
,MODERN INTERNATIONAL SCHOOL,"13.745739, 100.572236",education,education
,IPC INTERNATIONAL KINDERGARDEN,"13.743263, 100.568402",education,education
,AUSTRALIAN INTERNATIONAL SCHOOL BANGKOK SUKHUMVIT 19,"13.744369, 100.568714",education,education
,KIDDYKARE INTERNATIONAL KINDERGARDEN,"13.724098, 100.571269",education,education
Big office building,BHIRAJ TOWER AT EMQUARTIER,"13.731415, 100.569349",office,office
,EMPORIUM TOWER,"13.730143, 100.568866",office,office
,METROPOLIS BANGKOK,"13.729676, 100.571287",office,office
,RSU TOWER,"13.733084, 100.566221",office,office
,DS TOWER,"13.737399, 100.568506",office,office
,ITALTHAI TOWER,"13.746593, 100.573748",office,office
สวนสาธารณะ,BENCHA SIRI PARK,"13.730734, 100.567667",park,park
สถานทูต,THE EMBASSY OF PHILIPPINES,"13.726756, 100.574102",embassy,embassy
,ROYAL NORWEGIAN EMBASSY,"13.732569, 100.567310",embassy,embassy
ห้างสรรพสินค้า,EIGHT THONGLOR,"13.730616, 100.581745",shopping,shopping
Community Mall,FIFTY FIFTH THONGLOR,"13.726120, 100.580152",shopping,shopping
,MAZE THONGLOR,"13.728325, 100.581028",shopping,shopping
,SEEN SPACE,"13.733548, 100.581450",shopping,shopping
,J AVENUE THONGLOR,"13.734335, 100.581986",shopping,shopping
,NIHONMURA MALL,"13.734117, 100.579810",shopping,shopping
,ARENA 10,"13.731714, 100.584909",shopping,shopping
,THE COMMONS,"13.735022, 100.582239",shopping,shopping
Local Shopping,TOPS MARKET THONGLOR,"13.728656, 100.581661",shopping,shopping
โรงเรียน,BANGKOK PREP (MAIN CAMPUS),"13.725247, 100.577481",education,education
,WELLS INTERNATIONAL SCHOOL,"13.727726, 100.576936",education,education
,MELODY INTERNATIONAL KINDERGARDEN,"13.719815, 100.579684",education,education
,KOBATO KINDERGARDEN,"13.723859, 100.579004",education,education
โรงพยาบาล,CAMILLIAN HOSPITAL BANGKOK,"13.739109, 100.583927",hospital,hospital
,SAMITIVEJ HOSPITALS,"13.735038, 100.576677",hospital,hospital
Big office building,"AEON(THAILAND) CO.,LTD.","13.735650, 100.561812",office,office
,SK TOWER,"13.722885, 100.579755",office,office
,MAJOR TOWER,"13.732335, 100.582906",office,office
สถานทูต,IRAN EMBASSY,"13.736897, 100.576178",embassy,embassy
,BANGLADESH EMBASSY,"13.738854, 100.591689",embassy,embassy
Future project,EKAMAI MALL,"13.729294, 100.586445",shopping,future-project
,"ST.ANDREWS INTERNATION SCHOOL, SRIVIKORN CAMPUS","13.717494, 100.587717",education,future-project
ห้างสรรพสินค้า,GATEWAY EKAMAI,"13.719150, 100.585155",shopping,shopping
,MAJOR CINEPLEX SUKHUMVIT,"13.721178, 100.583213",shopping,shopping
Community Mall,PARK LANE EKAMAI,"13.723198, 100.583943",shopping,shopping
Local Shopping,EKAMAI SHOPPING MALL,"13.729285, 100.586647",shopping,shopping
,BIG C EKAMAI,"13.726891, 100.585679",shopping,shopping
โรงเรียน,EKAMAI INTERNTIONAL SCHOOL,"13.730897, 100.592283",education,education
,ADVENTIST EKAMAI SCHOOL,"13.730986, 100.592325",education,education
,BANGKOK UNIVERSITY CITY CAMPUS,"13.711406, 100.581997",education,education
โรงพยาบาล,SUKUMVIT HOSPITAL,"13.718749, 100.587548",hospital,hospital
Big office building,42 TOWER,"13.715332, 100.584571",office,office
,WHITE GROUP BUILDING,"13.714683, 100.586512",office,office
,BERLI JUCKER HOUSE,"13.714933, 100.585761",office,office
,SORACHAI BUILDING,"13.723905, 100.584201",office,office
,SSP TOWER 1,"13.738832, 100.588915",office,office
,BANGKOK BUSINESS CENTER,"13.724563, 100.584358",office,office
สถานทูต,BRUNEI EMBASSY,"13.722667, 100.585722",embassy,embassy
,EMBASSY OF EGYPT,"13.723738, 100.584267",embassy,embassy
,EMBASSY OF THE REPUBLIC OF MALTA,"13.720978, 100.530487",embassy,embassy
,MONGOLIA EMBASSY,"13.735482, 100.592389",embassy,embassy
,BULGARIAN EMBASSY,"13.740226, 100.548026",embassy,embassy
Future project,SUMMER HILL,"13.714165, 100.591849",extra Group (ไม่มีผลในการคำนวน แสดงผลในแผนที่เฉยๆ),future-project
Community Mall,W DISTRICT,"13.713977, 100.593148",shopping,shopping
Local Shopping,TAISIN SQUARE,"13.715924, 100.590831",shopping,shopping
ตลาด,PHRA KHANONG MARKET,"13.712163, 100.597057",shopping,shopping
,SINGHA MARKET,"13.711131, 100.596734",shopping,shopping
โรงเรียน,ST. ANDREWS INTERNATIONAL SCHOOL BANGKOK,"13.724073, 100.596838",education,education
,PHRA MAE MAREE PHRA KHANONG SCHOOL,"13.718361, 100.590808",education,education
โรงพยาบาล,KLUAYNAMTHAI HOSPITAL,"13.714008, 100.587720",hospital,hospital
Big office building,TAISIN TOWER,"13.716588, 100.590693",office,office
,CHAVANICH BUILDING,"13.716837, 100.592140",office,office
,ZALORA THAILAND,"13.717034, 100.592065",office,office
,S. KHONKAEN FOODS PUBLIC COMPANY LIMITED HEAD OFFICE,"13.720584, 100.595236",office,office
,ITALTHAI 2 BUILDING,"13.732059, 100.597073",office,office
,WHITE GROUP BUILDING,"13.714693, 100.586426",office,office
สถานทูต,EMBASSY OF NIGERIA,"13.722377, 100.595918",embassy,embassy
,THE EMBASSY OF NEPAL,"13.728713, 100.594779",embassy,embassy
Future project,CENTURY THE MOVIE PLAZA ONNUT,"13.705758, 100.601824",shopping,future-project
Community Mall,THE PHYLL SUKUMVIT 54,"13.702690, 100.601907",shopping,shopping
,HABITO MALL,"13.712950, 100.600826",shopping,shopping
,PICKADAILY BANGKOK,"13.711696, 100.635499",shopping,shopping
Local Shopping,BIG C EXTRA ONNUT,"13.709127, 100.601510",shopping,shopping
,TESCO LOTUS SUKHUMVIT 50,"13.705039, 100.600694",shopping,shopping
ตลาด,ONNUT MARKET,"13.710334, 100.600436",shopping,shopping
โรงเรียน,WELLS INTERNATIONAL SCHOOL,"13.727747, 100.576904",education,education
,BANGKOK PREP,"13.725278, 100.577502",education,education
,PANAYA KINDERGARDEN,"13.735520, 100.628379",education,education
ตลาด,BANGCHAK MARKET,"13.697510, 100.605162",shopping,shopping
โรงเรียน,BANGKOK COLLEGE OF TECHNOLOGY,"13.696651, 100.606000",education,education
Big office building,M TOWER,"13.694493, 100.606150",office,office
,DKSH THAILAND HEAD OFFICE,"13.694972, 100.606402",office,office
,"CHIA TAI CO., LTD.","13.737389, 100.510277",office,office
Future project,WHIZDOM 101,"13.685663, 100.610652",extra Group (ไม่มีผลในการคำนวน แสดงผลในแผนที่เฉยๆ),future-project
,True Digital Park,"13.685891, 100.610672",extra Group (ไม่มีผลในการคำนวน แสดงผลในแผนที่เฉยๆ),future-project
Community Mall,PIYAROM PLACE,"13.686074, 100.610540",shopping,shopping
โรงเรียน,ANGLO SINGAPORE INTERNATIONAL SCHOOL,"13.688077, 100.609252",education,education
,CHANAOATANA INTERNATIONAL DESIGN INSTITUTE,"13.689254, 100.614024",education,education
,SRIWATTANA BUSINESS ADMINISTRATION TECHNOLOGY COLLEGE,"13.684165, 100.608063",education,education
,CONVENT OF THE HOLY INFANT JESUS SCHOOL,"13.691684, 100.616808",education,education
Big office building,BANGCHAK PETROLEUM PCL.,"13.694552, 100.606212",office,office
Community Mall,DI WAVERY COMMUNITY MALL,"13.684557, 100.612343",shopping,shopping
Local Shopping,ONE UDOMSUK,"13.678956, 100.610267",shopping,shopping
ตลาด,UDOMSUK MARKET,"13.678998, 100.610834",shopping,shopping
,MAHASIN MARKET,"13.684348, 100.619041",shopping,shopping
โรงเรียน,GLORY INTERNATIONAL SCHOOL,"13.682506, 100.618482",education,education
,WACHIRATHAMSATIT SCHOOL,"13.691117, 100.632886",education,education
,ST.MICHAEL INTERNATIONAL KINDERGARTEN,"13.679839, 100.609540",education,education
,SAHAPANICH BUSINESS TECHNOLOGICAL COLLEGE,"13.692522, 100.610802",education,education
Big office building,"HONDA LEASING (THAILAND) CO., LTD.","13.679742, 100.609168",office,office
Future project,THE BANGKOK MALL,"13.673424, 100.609987",shopping,future-project
,NEW EASTHERN BUS TERMINAL,"13.719658, 100.584216",extra Group (ไม่มีผลในการคำนวน แสดงผลในแผนที่เฉยๆ),future-project
ห้างสรรพสินค้า,CENTRAL BANGNA,"13.669512, 100.634302",shopping,shopping
Local Shopping,BIG C SUPERCENTER BANGNA,"13.668810, 100.635726",shopping,shopping
ตลาด,BANG NA INTERSECTION MARKET,"13.673135, 100.605766",shopping,shopping
โรงเรียน,BERKELEY INTERNATIONAL SCHOOL,"13.672312, 100.613989",education,education
,SOUTHEAST BANGKOK COLLEGE,"13.674535, 100.600920",education,education
โรงพยาบาล,THAINAKARIN HOSPITAL,"13.668131, 100.638539",hospital,hospital
,BANGNA HOSPITAL,"13.666549, 100.635561",hospital,hospital
Big office building,BANGKOK INTERNATIONAL TRADE & EXHIBITION CENTRE,"13.669924, 100.609990",office,office
,BANGKOK INTERNATIONAL TRADE & EXHIBITION CENTRE PHASE 2,"13.669909, 100.607991",office,office
,BHIRAJBURI TOWER @ BITEC,"13.669753, 100.605880",office,office
,LACTASOY BUILDING,"13.668407, 100.604003",office,office
,AMPLE TOWER,"13.667037, 100.642829",office,office
ตลาด,LASALLE MARKET,"13.661030, 100.606688",office,office
โรงเรียน,ST. ANDREWS INTERNATIONAL SCHOOL SUKHUMVIT 107,"13.659387, 100.601887",education,education
,BANGKOK PATANA SCHOOL,"13.661929, 100.622286",education,education
,SAINT JOSEPH BANGNA SCHOOL,"13.647796, 100.627948",education,education
,LASALLE BANGNA SCHOOL,"13.657587, 100.631822",education,education
โรงพยาบาล,MANAROM HOSPITAL,"13.664493, 100.602549",hospital,hospital
Big office building,CENTER POINT STUDIO,"13.662532, 100.603588",office,office
ห้างสรรพสินค้า,IMPERIAL WORLD SAMRONG,"13.650594, 100.595529",shopping,shopping
Local Shopping,"BIG C SUPERCENTER, SAMRONG","13.650501, 100.596330",shopping,shopping
ตลาด,SAMRONG MARKET,"13.651771, 100.597887",shopping,shopping
โรงเรียน,ASSUMPTION SAMUTPRAKARN SCHOOL,"13.628149, 100.603619",education,education
โรงพยาบาล,SAMRONG HOSPITAL,"13.650439, 100.594050",hospital,hospital
ห้างสรรพสินค้า,MBK CENTER,"13.744448, 100.529967",shopping,shopping
Local Shopping,THE JIM THOMPSON HOUSE & MUSEUM,"13.749051, 100.528629",shopping,shopping
,SUANLUNG SQUARE,"13.743241, 100.524541",shopping,shopping
โรงเรียน,PATHUMWAN INSTITUTE OF TECHNOLOGY,"13.747319, 100.525771",education,education
สวนสาธารณะ,THE NATIONAL STADIUM OF THAILAND,"13.745425, 100.525814",park,park
หอศิลปะ,BANGKOK ART & CULTURE CENTRE,"13.746630, 100.530285",extra Group (ไม่มีผลในการคำนวน แสดงผลในแผนที่เฉยๆ),extra Group (ไม่มีผลในการคำนวน แสดงผลในแผนที่เฉยๆ)
Future project,THE MARKET,"13.704403, 100.493047",shopping,future-project
,GAYSORN OFFICE TOWER 2,"13.744881, 100.540753",shopping,future-project
ห้างสรรพสินค้า,SIAM PARAGON,"13.746759, 100.535041",shopping,shopping
,SIAM CENTER,"13.746169, 100.532735",shopping,shopping
,SIAM DISCOVERY CENTER,"13.746390, 100.531597",shopping,shopping
,CENTERPOINT OF SIAM SQUARE,"13.745097, 100.533240",shopping,shopping
,CENTRAL WORLD,"13.746174, 100.539914",shopping,shopping
,PLATINUM,"13.750129, 100.539426",shopping,shopping
,PANTIP PLAZA,"13.750477, 100.537337",shopping,shopping
,GAYSORN VILLAGE,"13.744873, 100.540719",shopping,shopping
,BIG C SUPERMARKET,"13.747135, 100.541169",shopping,shopping
Community Mall,SIAM SQUARE ONE,"13.744767, 100.533858",shopping,shopping
Local Shopping,SIAM SQUARE,"13.744915, 100.533812",shopping,shopping
,PRATU NAM MARKET,"13.750336, 100.540538",shopping,shopping
โรงเรียน,TRIAM UDOM SUKSA SCHOOL,"13.740352, 100.530792",education,education
,PATUMWAN DEMONSTRATION SCHOOL,"13.740186, 100.534201",education,education
,CHULALONGKORN UNIVERSITY DEMONSTRATION SCHOOL,"13.736434, 100.527061",education,education
,CHULALONGKORN UNIVERSITY,"13.736465, 100.527054",education,education
,RAJAMANGALA UNIVERSITY OF TECHNOLOGY TAWANOK : UTHENTHAWAI CAMPUS,"13.741967, 100.530980",education,education
Big office building,SIAM PIWAT TOWER,"13.746495, 100.531806",office,office
,THE OFFICES AT CENTRALWORLD,"13.746618, 100.538664",office,office
,SIAMKIT BUILDING,"13.744080, 100.534525",office,office
,WITTHYAKIT BUILDING,"13.743698, 100.532922",office,office
สวนสาธารณะ,CHULALONGKORN UNIVERSITY CENTENARY PARK,"13.739375, 100.523774",park,park
Local Shopping,PENINSULA PLAZA,"13.741603, 100.540269",shopping,shopping
โรงพยาบาล,POLICE HOSPITAL,"13.744326, 100.539457",hospital,hospital
Big office building,THE MILLENNIA BUILDING,"13.738450, 100.542308",office,office
,ABB BUILDING,"13.738685, 100.541844",office,office
,SG TOWER,"13.738523, 100.542359",office,office
,NANTHAWAN BUILDING,"13.739117, 100.539873",office,office
สวนสาธารณะ,THE ROYAL BANGKOK SPORTS CLUB,"13.739879, 100.535911",park,park
Future project,NEW PROJECT MIXED USE DUSIT THANI,"13.728603, 100.536724",extra Group (ไม่มีผลในการคำนวน แสดงผลในแผนที่เฉยๆ),future-project
ห้างสรรพสินค้า,SILOM COMPLEX,"13.728293, 100.535103",shopping,shopping
Local Shopping,THANIYA PLAZA,"13.728554, 100.533882",shopping,shopping
ตลาด,PATPONG NIGHT MARKET,"13.729206, 100.531597",shopping,shopping
โรงเรียน,SAINT JOSEPH CONVENT SCHOOL,"13.726121, 100.534950",education,education
,CHRISTIAN UNIVERSITY OF THAILAND,"13.728286, 100.531162",education,education
โรงพยาบาล,THE BANGKOK CHRISTIAN HOSPITAL,"13.727935, 100.531901",hospital,hospital
,BNH HOSPITAL,"13.724885, 100.535071",hospital,hospital
,KING CHULALONGKORN MEMORIAL HOSPITAL,"13.730844, 100.535642",hospital,hospital
Big office building,UNITED CENTER BUILDING,"13.727030, 100.531468",office,office
,CP TOWER,"13.727437, 100.532691",office,office
,SIBUNRUANG BUILDING,"13.727321, 100.533841",office,office
,SIBUNRUANG 2 BUILDING,"13.727258, 100.533787",office,office
,Q. HOUSE CONVENT BUILDING,"13.724698, 100.534367",office,office
,U CHU LIANG BUILDING,"13.726915, 100.540740",office,office
,ABDULRAHIM PLACE,"13.727301, 100.539099",office,office
,THAI LIFE INSURANCE BUILDING 2,"13.728260, 100.534883",office,office
,WALL STREET TOWER,"13.729942, 100.532379",office,office
,TCC GROUP,"13.729656, 100.531669",office,office
,CHARN ISSARA TOWER,"13.730008, 100.534318",office,office
,BANGKOK BANK HEAD OFFICE,"13.720406, 100.523456",office,office
,YADA BUILDING,"13.728862, 100.534348",office,office
,U.F.M.BUILDING,"13.728581, 100.534120",office,office
,ZUELLIG HOUSE BUILDING,"13.728831, 100.535815",office,office
,SIVADON BUILDING,"13.727954, 100.533759",office,office
,LIBERTY SQUARE,"13.727809, 100.532984",office,office
,ARCANE BUILDING,"13.727580, 100.532100",office,office
,KAMOL SUKOSOL BUILDING,"13.727403, 100.531807",office,office
,KASEMKIJ BUILDING,"13.728196, 100.532477",office,office
,PILOT BUILDING,"13.727096, 100.530699",office,office
,HARINDHORN TOWER,"13.724433, 100.536893",office,office
,SAKULTHAI BUILDING,"13.728987, 100.529258",office,office
สวนสาธารณะ,LUMPINI PARK,"13.729870, 100.541403",park,park
สถานทูต,EMBASSY OF AUSTRIA,"13.723344, 100.537965",embassy,embassy
,EMBASSY OF GERMANY,"13.724961, 100.542106",embassy,embassy
,EMBASSY OF CANADA,"13.727528, 100.538845",embassy,embassy
ห้างสรรพสินค้า,TRINITY COMPLEX,"13.724356, 100.530661",shopping,shopping
Local Shopping,SILOM PLAZA,"13.725596, 100.527700",shopping,shopping
ตลาด,LA LAEY SAP MARKET,"13.726253, 100.529781",shopping,shopping
Big office building,SATHORN THANI BUILDING,"13.723175, 100.530764",office,office
,STANDARD CHARTERED HEAD OFFICE,"13.722435, 100.531000",office,office
,SATHORN SQUARE,"13.722232, 100.529197",office,office
,MAHANAKHON TOWER,"13.724157, 100.528365",office,office
,BANGKOK BANK HEAD OFFICE,"13.726575, 100.530339",office,office
,EMPIRE TOWER,"13.720625, 100.530317",office,office
,BANGKOK CITY TOWER,"13.721521, 100.531188",office,office
,SATHORN CITY TOWER,"13.721642, 100.532033",office,office
,UOB HEAD OFFICE,"13.720580, 100.527148",office,office
,OCEAN LIFE INSURANCE BUILDING,"13.728516, 100.528129",office,office
,RATCHANAKAN BUILDING,"13.721029, 100.529454",office,office
,SAENG THONG THANI BUILDING,"13.722850, 100.533018",office,office
,SATHORN THANI 2 BUILDING,"13.722956, 100.530732",office,office
,SATHORN NAKORN TOWER,"13.723023, 100.530277",office,office
,DIAMOND TOWER,"13.724790, 100.529314",office,office
,ITF TOWER,"13.726517, 100.528252",office,office
,SSP TOWER,"13.738830, 100.588975",office,office
,ASIA CENTER BUILDING,"13.666834, 100.642413",office,office
,BUNYAMIT BUILDING,"13.727383, 100.530165",office,office
สถานทูต,EMBASSY OF GREECE,"13.722509, 100.530362",embassy,embassy
,EMBASSY OF BELGIUM,"13.722159, 100.529257",embassy,embassy
,ROYAL EMBASSY OF SAUDI ARABIA,"13.722713, 100.532135",embassy,embassy
,EMBASSY OF THE KINGDOM OF MOROCCO,"13.721796, 100.531903",embassy,embassy
,EMBASSY OF TAIWAN,"13.721017, 100.530443",embassy,embassy
,EMBASSY OF THE REPUBLIC OF SINGAPORE,"13.722298, 100.533062",embassy,embassy
โรงเรียน,BANGKOK CHRISTIAN COLLEGE,"13.721228, 100.522508",education,education
,ASSUMPTION CONVENT SILOM SCHOOL,"13.721872, 100.521940",education,education
,ASSUMPTION COLLEGE PRIMARY SECTION,"13.716507, 100.526932",education,education
,THE HISTORY OF SAINT LOUIS SUKSA SCHOOL,"13.718911, 100.523763",education,education
,SAINT LOUIS COLLEGE,"13.717105, 100.522030",education,education
โรงพยาบาล,SAINT LOUIS HOSPITAL,"13.719649, 100.525146",hospital,hospital
Big office building,CENTRAL SILOM TOWER,"13.723655, 100.520416",office,office
,CHARTERED SQUARE BUILDING,"13.719278, 100.519741",office,office
,THAI CC TOWER,"13.718086, 100.521560",office,office
,JEWELRY TRADE CENTER SILOM,"13.723100, 100.520073",office,office
,VONGVANIJ BUILDING,"13.718687, 100.518467",office,office
,DOUBLE A BOOK TOWER,"13.720889, 100.526163",office,office
,A.I.A. SATHORN CENTER,"13.719643, 100.521366",office,office
,SETHIWAN TOWER,"13.721443, 100.524389",office,office
,SSP TOWER,"13.723741, 100.521461",office,office
สถานทูต,EMBASSY OF MYANMAR,"13.721013, 100.526561",embassy,embassy
,EMBASSY OF VATICAN CITY STATE,"13.719619, 100.523394",embassy,embassy
Future project,ASIATIQUE PHASE 2-4,"13.705610, 100.494787",shopping,future-project
ห้างสรรพสินค้า,ROBINSON BANGRAK,"13.719606, 100.515271",shopping,shopping
,RIVER CITY SHOPPING COMPLEX,"13.730175, 100.513213",shopping,shopping
Local Shopping,ASIATIQUE THE RIVERFRONT,"13.704049, 100.502680",shopping,shopping
ตลาด,BANGRAK MARKET,"13.720413, 100.515307",shopping,shopping
โรงเรียน,SHREWSBURY INTERNATIONAL SCHOOL,"13.710023, 100.509223",education,education
,WAT SUTHIWARARAM SCHOOL,"13.712391, 100.512210",education,education
,ASSUMPTION BANGRAK COLLEGE,"13.723395, 100.516177",education,education
,ASSUMPTION CONVENT SCHOOL,"13.723148, 100.514598",education,education
,ASSUMPTION COLLEGE,"13.722160, 100.516090",education,education
,SATRI SISURIYOTHAI SCHOOL,"13.715189, 100.516089",education,education
,RAJAMANGALA UNIVERSITY OF TECHNOLOGY KRUNGTHEP,"13.714327, 100.538726",education,education
โรงพยาบาล,LERDSIN HOSPITAL,"13.722052, 100.517579",hospital,hospital
Big office building,STATE TOWER,"13.721121, 100.517511",office,office
,GEMS TOWER,"13.723547, 100.517284",office,office
,CAT TOWER,"13.726710, 100.516043",office,office
,CHAO PHYA TOWER,"13.719671, 100.513738",office,office
สถานทูต,FRENCH EMBASSY,"13.724755, 100.514910",embassy,embassy
Future project,ICONSIAM,"13.726973, 100.510309",extra Group (ไม่มีผลในการคำนวน แสดงผลในแผนที่เฉยๆ),future-project
Community Mall,SENA FEST COMMUNITY MALL,"13.719171, 100.507965",shopping,shopping
,VUE LIFESTYLE MALL,"13.721817, 100.509366",shopping,shopping
,THE LIGHTHOUSE,"13.722223, 100.508504",shopping,shopping
Local Shopping,KHLONGSAN PLAZA,"13.728643, 100.508924",shopping,shopping
โรงเรียน,INTERNATIONAL PIONEERS SCHOOL,"13.722353, 100.500420",education,education
โรงพยาบาล,TAKSIN HOSPITAL,"13.730403, 100.508633",hospital,hospital
,CHAO PHYA HOSPITAL,"13.730467, 100.504471",hospital,hospital
Big office building,SINN SATHORN TOWER,"13.721747, 100.499450",office,office
,THAI SRI TOWER,"13.720394, 100.501649",office,office
,CHOYAD AND SON BUILDING,"13.719644, 100.505334",office,office
,PRINCESS TOWER,"13.719510, 100.509223",office,office
สวนสาธารณะ,ROYAL PARK TAKSIN,"13.720259, 100.508998",park,park
ห้างสรรพสินค้า,PLATFORM WONGWIANYAI,"13.726889, 100.494832",shopping,shopping
ตลาด,WONGWIANYAI MARKET,"13.725492, 100.494231",shopping,shopping
,CHAROENRAT MARKET,"13.725888, 100.494686",shopping,shopping
โรงเรียน,SUKSANARI SCHOOL,"13.734713, 100.495459",education,education
,KING MONGKUT'S UNIVERSITY OF TECHNOLOGY THONBURI : WONGWIANYAI,"13.720484, 100.498321",education,education
,BANSOMDEJCHAOPRAYA RAJABHAT UNIVERSITY,"13.732934, 100.489228",education,education
,DHONBURI RAJABHAT UNIVERSITY,"13.734650, 100.490663",education,education
โรงพยาบาล,SAMITIVEJ HOSPITAL THON BURI,"13.714140, 100.489090",hospital,hospital
Big office building,THAI VIRAWAT BUILDING,"13.720443, 100.496602",office,office
,SIN SIAM BUILDING,"13.720461, 100.498745",office,office
,SK BUILDING,"13.721459, 100.498665",office,office
,THANATORN BUILDING,"13.721426, 100.498859",office,office
ตลาด,WAT KLANG MARKET,"13.723014, 100.481066",shopping,shopping
,BANG YI RUEA MARKET,"13.725726, 100.487509",shopping,shopping
โรงเรียน,ROYAL THAI NAVY COLLEGE OF NURSING,"13.708715, 100.485848",education,education
โรงพยาบาล,SOMDEJPRAPINKLAO HOSPITAL,"13.710379, 100.487096",hospital,hospital
ห้างสรรพสินค้า,THE MALL THA PRA,"13.713594, 100.480141",shopping,shopping
ตลาด,TALAT PHLU MARKET,"13.721567, 100.477733",shopping,shopping
โรงเรียน,MARMARA SCHOOL ENGLISH PROGRAM,"13.706963, 100.477098",education,education
โรงพยาบาล,RATCHADA-THAPRA HOSPITAL,"13.717188, 100.477554",hospital,hospital
Future project,NEW PROJECT RETAIL MALL TOTAL AREA 60 RAI,"13.714814, 100.459425",shopping,future-project
ห้างสรรพสินค้า,SEACON BANGKAE,"13.711713, 100.434323",shopping,shopping
Community Mall,METRO WEST TOWN,"13.709240, 100.452119",shopping,shopping
ตลาด,SENEE MARKET,"13.722751, 100.460935",shopping,shopping
,JARERN SRI MARKET,"13.720989, 100.467655",shopping,shopping
โรงเรียน,WAT NUANNORADIT SCHOOL,"13.724872, 100.466679",education,education
,SATRI WAT ABSORNSAWAN SCHOOL,"13.720624, 100.469766",education,education
,SIAM UNIVERSITY,"13.718322, 100.453127",education,education
โรงพยาบาล,PHYATHAI 3 HOSPITAL,"13.723221, 100.463577",hospital,hospital
,BANGPHAI HOSPITAL,"13.724905, 100.465023",hospital,hospital
,PHASI CHAROEN HOSPITAL,"13.714523, 100.443411",hospital,hospital
Local Shopping,Yaowarat,"13.741095, 100.508384",shopping,shopping
ตลาด,Saphan Lueang Fresh Market,"13.735897, 100.522494",shopping,shopping
โรงเรียน,Mahaprutaram School,"13.732177, 100.517255",education,education
,Debsirin School,"13.746594, 100.515847",education,education
,Saipanya School,"13.742939, 100.514957",education,education
,Trimitwitthayalai School,"13.738587, 100.514198",education,education
โรงพยาบาล,Bangkok Hospital China Town,"13.737801, 100.512654",hospital,hospital
Future project,Samyan Mitrtown,"13.734104, 100.528626",extra Group (ไม่มีผลในการคำนวน แสดงผลในแผนที่เฉยๆ),future-project
ห้างสรรพสินค้า,Chamchuri Square,"13.733028, 100.529753",shopping,shopping
Community Mall,I'm park,"13.740079, 100.524987",shopping,shopping
Local Shopping,Zy Walk,"13.740631, 100.524497",shopping,shopping
ตลาด,Sam Yan Market,"13.737046, 100.524064",shopping,shopping
โรงเรียน,Triam Udom Suksa School,"13.740508, 100.530959",education,education
,Patumwan Demonstration School,"13.740186, 100.534262",education,education
,Chulalongkorn University Demonstration School,"13.736486, 100.527111",education,education
,Chulalongkorn University,"13.738341, 100.532100",education,education
โรงพยาบาล,Chulalongkorn hospital,"13.730885, 100.535503",hospital,hospital
,The Thai Red Cross Society,"13.731844, 100.533314",hospital,hospital
Big office building,Chamchuri Square,"13.733059, 100.529667",office,office
สวนสาธารณะ,Chulalongkorn University Centenary Park,"13.739376, 100.523735",park,park
สถานทูต,Russian Embassy,"13.729584, 100.527513",embassy,embassy
Future project,Mixed Use dusit thani,"13.728603, 100.536724",extra Group (ไม่มีผลในการคำนวน แสดงผลในแผนที่เฉยๆ),future-project
ห้างสรรพสินค้า,Silom Complex,"13.728314, 100.535028",shopping,shopping
Local Shopping,Thaniya Plaza,"13.728544, 100.533818",shopping,shopping
ตลาด,Patpong Night Market,"13.729196, 100.531500",shopping,shopping
โรงเรียน,Saint Joseph Convent School,"13.726111, 100.534886",education,education
,Christian University of Thailand,"13.728296, 100.531054",education,education
โรงพยาบาล,THE BANGKOK CHRISTIAN HOSPITAL,"13.727852, 100.531965",hospital,hospital
,BNH Hospital,"13.724906, 100.535060",hospital,hospital
,King chulalongkorn memorial hospital,"13.730844, 100.535567",hospital,hospital
Big office building,United Center Building,"13.726998, 100.531522",office,office
,CP Tower,"13.727500, 100.532680",office,office
,Sibunruang Building,"13.727289, 100.533809",office,office
,Sibunruang 2 Building,"13.727248, 100.533809",office,office
,Q. House Convent Building,"13.724677, 100.534249",office,office
,U Chu Liang Building,"13.726998, 100.540826",office,office
,Abdulrahim Place,"13.726936, 100.540772",office,office
,Thai Life Insurance Building 2,"13.728268, 100.534907",office,office
,Wall Street Tower,"13.729974, 100.532304",office,office
,TCC Group,"13.729677, 100.531572",office,office
,Charn Issara Tower,"13.730019, 100.534264",office,office
,Tisco bank Head office,"13.720300, 100.523354",office,office
,Yada Building,"13.728831, 100.534326",office,office
,U.F.M.Building,"13.728609, 100.534145",office,office
,Zuellig House Building,"13.729004, 100.536200",office,office
,Sivadon Building,"13.727954, 100.533813",office,office
,Liberty Square,"13.727820, 100.532941",office,office
,Arcane Building,"13.727610, 100.532143",office,office
,Kamol Sukosol Building,"13.727340, 100.531807",office,office
,Kasemkij Building,"13.728185, 100.532531",office,office
,Pilot Building,"13.727705, 100.526691",office,office
,Harindhorn Tower,"13.724423, 100.536893",office,office
,Sakulthai Building,"13.728983, 100.529252",office,office
สวนสาธารณะ,Lumpini park,"13.729943, 100.541339",park,park
สถานทูต,Embassy of Austria,"13.723375, 100.537890",embassy,embassy
,Embassy of Germany,"13.724961, 100.542160",embassy,embassy
,Embassy of Canada,"13.727539, 100.538888",embassy,embassy
Future project,Mixed use One Bangkok,"13.726766, 100.545846",extra Group (ไม่มีผลในการคำนวน แสดงผลในแผนที่เฉยๆ),future-project
Big office building,Q. House Lumpini,"13.725476, 100.544557",office,office
,Q. House Sathorn,"13.724712, 100.541691",office,office
,Lumpini Tower,"13.723973, 100.549300",office,office
,Cathay House Building,"13.725958, 100.542803",office,office
,Thai wah tower 1,"13.724173, 100.539529",office,office
,Thai wah tower 2,"13.723906, 100.539668",office,office
,Harinthon Building,"13.724392, 100.536861",office,office
,Tisco Tower,"13.724642, 100.538184",office,office
,Sri Fuang Fung Building,"13.726663, 100.542591",office,office
,Sathon Tower Building,"13.726017, 100.542591",office,office
,Sathorn Gardens Tower,"13.722516, 100.538839",office,office
,Suwan Tower,"13.726015, 100.541727",office,office
,Bupphachit Building,"13.725434, 100.541060",office,office
,Bangkok Insurance YWCA Tower,"13.724292, 100.541253",office,office
,Smooth Life Tower,"13.724861, 100.539091",office,office
สวนสาธารณะ,Lumpini Park,"13.729839, 100.541328",park,park
สถานทูต,Embassy Of Luxembourg,"13.724652, 100.543627",embassy,embassy
,Embassy of Denmark,"13.723492, 100.544192",embassy,embassy
,Embassy of Austrian,"13.723469, 100.537912",embassy,embassy
,Embassy of Germany,"13.725003, 100.542074",embassy,embassy
,Embassy of Brazil,"13.724053, 100.549504",embassy,embassy
,Embassy of Panama,"13.723878, 100.549337",embassy,embassy
,Embassy of Malysia,"13.721917, 100.538898",embassy,embassy
,Embassy of Maxico,"13.724008, 100.539637",embassy,embassy
,Consulate of Ireland,"13.728442, 100.534002",embassy,embassy
,Embassy of Slovak Republic,"13.729248, 100.536570",embassy,embassy
,Embassy of Japan,"13.729380, 100.545706",embassy,embassy
หอศิลปะ,Bangkok City Gallery,"13.723659, 100.544489",extra Group (ไม่มีผลในการคำนวน แสดงผลในแผนที่เฉยๆ),extra Group (ไม่มีผลในการคำนวน แสดงผลในแผนที่เฉยๆ)
Future project,New Project River Station,"13.713843, 100.553545",extra Group (ไม่มีผลในการคำนวน แสดงผลในแผนที่เฉยๆ),future-project
ตลาด,Tobacco factory market,"13.723352, 100.555700",shopping,shopping
โรงพยาบาล,Tobacco Factory Hospital,"13.724886, 100.554090",hospital,hospital
สวนสาธารณะ,The Princess Mother Memorial Park,"13.716125, 100.555154",park,park
Future project,New phase of Benchakitti Park,"13.725885, 100.558875",extra Group (ไม่มีผลในการคำนวน แสดงผลในแผนที่เฉยๆ),future-project
,The Parq,"13.721153, 100.558529",extra Group (ไม่มีผลในการคำนวน แสดงผลในแผนที่เฉยๆ),future-project
ตลาด,Klongtoey Market,"13.719619, 100.560662",shopping,shopping
,Penang Markets,"13.717364, 100.557254",shopping,shopping
โรงเรียน,Sacred Heart Convent School,"13.718190, 100.555590",education,education
,Australian International School Bangkok Sukhumvit 20,"13.728382, 100.564091",education,education
Big office building,FYI center,"13.720891, 100.559707",office,office
,Queen Sirikit National Convention Center,"13.723605, 100.559105",office,office
,Loxley Building,"13.716056, 100.558029",office,office
,Port Authority of Thailand,"13.713401, 100.563704",office,office
สวนสาธารณะ,Benchakitti Park,"13.725906, 100.558789",park,park
สถานทูต,Embassy of Romania,"13.717023, 100.570038",embassy,embassy
ห้างสรรพสินค้า,Terminal 21,"13.737225, 100.560666",shopping,shopping
,Robinson Asoke,"13.738187, 100.559311",shopping,shopping
Community Mall,Mid Town Asoke,"13.743682, 100.561864",shopping,shopping
Local Shopping,Korean Town,"13.738513, 100.558167",shopping,shopping
,Prasarnmit Plaza,"13.740535, 100.562927",shopping,shopping
ตลาด,Asoke Market,"13.737075, 100.561230",shopping,shopping
,RuamSap market,"13.744629, 100.561745",shopping,shopping
โรงเรียน,Srinakharinwirot University,"13.745455, 100.565325",education,education
,Srinakharinwirot University Prasarnmit Demonstration School,"13.743275, 100.565788",education,education
,Wattana Wittaya Academy,"13.744173, 100.560481",education,education
,Sai Nam Peung School,"13.727436, 100.564942",education,education
,Sai Nam Tip School,"13.727847, 100.565318",education,education
Big office building,Times Square Building,"13.737733, 100.558856",office,office
,Jasmine City,"13.735542, 100.563152",office,office
,Exchange Tower,"13.735240, 100.561332",office,office
,Interchange Tower,"13.736406, 100.561637",office,office
,Sino-Thai Tower,"13.740085, 100.562338",office,office
,CTI Tower,"13.732485, 100.560352",office,office
,UBC II Building,"13.732502, 100.567535",office,office
,The Lakes Ratchada,"13.733518, 100.560253",office,office
,Ocean Tower 1,"13.730524, 100.560514",office,office
,Ocean Tower 2,"13.742688, 100.561369",office,office
,Glas haus Building,"13.735532, 100.563305",office,office
,Soemmit Tower Building,"13.740792, 100.561539",office,office
,Gmm Grammy,"13.743551, 100.562451",office,office
,Ratchaphak Building,"13.741870, 100.561830",office,office
,The Prime Town,"13.739771, 100.562200",office,office
,BB Building,"13.743895, 100.562928",office,office
สถานทูต,Embassy of India,"13.742375, 100.563853",embassy,embassy
,Embassy of Lebanon,"13.732185, 100.560038",embassy,embassy
,Embassy of Sri Lankan,"13.742501, 100.561874",embassy,embassy
,Embassy of Spain,"13.731584, 100.560374",embassy,embassy
,Embassy of Chile,"13.732834, 100.567627",embassy,embassy
,Embassy of Peru,"13.735628, 100.563358",embassy,embassy
Future project,Singha complex,"13.748419, 100.563725",extra Group (ไม่มีผลในการคำนวน แสดงผลในแผนที่เฉยๆ),future-project
,Makkasan Complex,"13.751990, 100.562296",extra Group (ไม่มีผลในการคำนวน แสดงผลในแผนที่เฉยๆ),future-project
โรงเรียน,Saint Dominic School,"13.749018, 100.559401",education,education
,Srinakharinwirot University Prasarnmit Demonstration School,"13.743233, 100.565831",education,education
,Don Bosco Tecnological College,"13.750103, 100.559859",education,education
,NIST International School,"13.747344, 100.559753",education,education
,Srinakharinwirot University,"13.745424, 100.565317",education,education
โรงพยาบาล,Rutnin Eye Hospital,"13.746325, 100.563094",hospital,hospital
,Asoke Skin Hospital,"13.750766, 100.564335",hospital,hospital
Big office building,Q. House Asoke,"13.745380, 100.562908",office,office
,KKP Tower,"13.744970, 100.562292",office,office
,Asoke Towers,"13.745506, 100.562371",office,office
,253 Asoke Building,"13.747032, 100.562772",office,office
,Thai Summit Tower,"13.747756, 100.567195",office,office
Future project,The Grand Rama 9,"13.757281, 100.566734",shopping,future-project
,Shrewsbury International School city campus,"13.752424, 100.578331",education,future-project
,New Project BUMRUNGRAD INTERNATIONAL HOSPITAL,"13.748943, 100.558472",hospital,future-project
ห้างสรรพสินค้า,Central Plaza Grand Rama 9,"13.758486, 100.566132",shopping,shopping
,Fortune Town IT Mall,"13.758488, 100.565149",shopping,shopping
,Show DC,"13.750391, 100.572511",shopping,shopping
Local Shopping,The shoppes,"13.760162, 100.568441",shopping,shopping
ตลาด,Yujaroen market,"13.756773, 100.563718",shopping,shopping
โรงเรียน,Maepra Fatima School,"13.760693, 100.556495",education,education
โรงพยาบาล,Rama 9 Hospital,"13.752900, 100.570941",hospital,hospital
Big office building,G Tower,"13.757018, 100.565565",office,office
,Unilever House,"13.757039, 100.567342",office,office
,Fortune Tower,"13.758457, 100.565133",office,office
,The 9th Tower,"13.758701, 100.567762",office,office
,True Tower,"13.762382, 100.568071",office,office
,Government Housing Bank Head Building,"13.761456, 100.569214",office,office
,Dhipaya Building,"13.760956, 100.570673",office,office
,Vongvanij Complex Building,"13.754711, 100.572402",office,office
,Chamnan Phenjati Business Center Building,"13.756644, 100.568655",office,office
,Mcot Building,"13.755924, 100.569446",office,office
,Rungrojthanakul Building,"13.759891, 100.566718",office,office
,Toyota Tsusho (Thailand) Head office,"13.756453, 100.558757",office,office
สถานทูต,Embassy of China,"13.762618, 100.567115",embassy,embassy
,Embassy of Poland,"13.755031, 100.572928",embassy,embassy
ห้างสรรพสินค้า,Esplanade Ratchada,"13.766209, 100.569390",shopping,shopping
,The Street Ratchada,"13.770248, 100.572109",shopping,shopping
Community Mall,K Market,"13.766964, 100.570563",shopping,shopping
Local Shopping,Big C Extra Ratchadaphisek,"13.769301, 100.571244",shopping,shopping
,China merchadise exhibition and trade center,"13.754882, 100.573223",shopping,shopping
,Thailand Cultural Centre,"13.766487, 100.573758",shopping,shopping
,Siam Niramit,"13.769422, 100.577541",shopping,shopping
ตลาด,Train Night Market Ratchada,"13.767041, 100.568842",shopping,shopping
โรงเรียน,Bangkok Bilingual School,"13.770398, 100.584811",education,education
Big office building,AIA Tower,"13.764797, 100.568092",office,office
,RS Tower,"13.767209, 100.570542",office,office
,CW Tower,"13.769630, 100.573592",office,office
,The Stock Exchange of Thailand Building,"13.763484, 100.567759",office,office
,Mcot Building,"13.763080, 100.571682",office,office
,Thai Life Insurance Building,"13.767572, 100.570809",office,office
สถานทูต,Embassy of Korea,"13.767429, 100.577938",embassy,embassy
,Embassy of Cambodia,"13.768400, 100.596431",embassy,embassy
ตลาด,Huai Khwang Market,"13.777470, 100.568101",shopping,shopping
โรงเรียน,Triamudomsuksapattanakarn Ratchada School,"13.772959, 100.573765",hospital,hospital
,Samsennok School,"13.777044, 100.569474",hospital,hospital
Big office building,Forum Tower,"13.773273, 100.573918",office,office
,CW Tower,"13.769851, 100.573628",office,office
,Sermsub Building,"13.779972, 100.573439",office,office
สถานทูต,Embassy of Bhutanese,"13.777625, 100.587253",embassy,embassy
ตลาด,Muang Thai Phatra Market,"13.788410, 100.574368",shopping,shopping
โรงเรียน,Prep International Kindergarden,"13.789472, 100.584166",education,education
โรงพยาบาล,Golden Years Hospital,"13.789713, 100.577380",hospital,hospital
Big office building,Mueng Thai - Phatara Complex Building,"13.787002, 100.574791",office,office
,Preecha Complex,"13.791366, 100.574946",office,office
,Glass House Ratchada,"13.799701, 100.575246",office,office
,Kritsada plaza building,"13.803106, 100.574544",office,office
สถานทูต,Embassy of Turkey,"13.788047, 100.586798",embassy,embassy
Local Shopping,Boonthavorn,"13.794620, 100.574047",shopping,shopping
,Boonthavorn Lifestyle Furniture,"13.794681, 100.574808",shopping,shopping
,Podium Home Center Ratchadapisek,"13.795267, 100.574145",shopping,shopping
โรงเรียน,Panchasap School,"13.797568, 100.573797",hospital,hospital
Big office building,Charan Insurance PCL. Building,"13.795693, 100.574933",office,office
,The SC Place,"13.795655, 100.574166",office,office
,Grand Blog,"13.798842, 100.575202",office,office
Local Shopping,Big C Extra Ladprao,"13.810112, 100.569472",shopping,shopping
,Suanlum Night Bazaar Ratchadaphisek,"13.804022, 100.574528",shopping,shopping
,Gourmet market MRT Ladprao station,"13.806367, 100.573176",shopping,shopping
โรงเรียน,Chandrakasem Rajabhat University,"13.818821, 100.577320",education,education
Future project,BANGKOK DOME,"13.821453, 100.564073",extra Group (ไม่มีผลในการคำนวน แสดงผลในแผนที่เฉยๆ),future-project
ห้างสรรพสินค้า,Central Ladprao,"13.815721, 100.560951",shopping,shopping
,Union mall,"13.813236, 100.562211",shopping,shopping
,Tesco Lotus Ladprao,"13.817813, 100.563817",shopping,shopping
,Major Ratchayothin,"13.828676, 100.568631",shopping,shopping
Community Mall,Avenue Ratchayothin,"13.828342, 100.566845",shopping,shopping
ตลาด,Lung Perm Market,"13.806431, 100.562443",shopping,shopping
โรงเรียน,Horwang School,"13.818298, 100.560855",education,education
,Saint John’s International School,"13.809394, 100.563054",education,education
,Saint John’s University,"13.809370, 100.562947",education,education
Big office building,SCB Park,"13.828114, 100.564986",office,office
,Elephant Building,"13.825414, 100.567657",office,office
,PTT headquarter,"13.817970, 100.557531",office,office
,I Tower (Toyota Metropolitan Head Office),"13.820263, 100.559377",office,office
,Rasa Tower 1,"13.819879, 100.563659",office,office
,Rasa Tower 2,"13.819814, 100.562942",office,office
,SHINAWATRA TOWER 3,"13.823186, 100.559539",office,office
,Promphan Building,"13.766478, 100.646435",office,office
สวนสาธารณะ,The Princess Mother Memorial Park,"13.814543, 100.560056",park,park
Future project,Mixed use KM. 11,"13.820669, 100.552776",extra Group (ไม่มีผลในการคำนวน แสดงผลในแผนที่เฉยๆ),future-project
,Mochit Complex : Mixed use complex,"13.806566, 100.557169",extra Group (ไม่มีผลในการคำนวน แสดงผลในแผนที่เฉยๆ),future-project
Local Shopping,Jatuchak Weekend Market,"13.799957, 100.550865",shopping,shopping
,JJ Green,"13.805162, 100.551830",shopping,shopping
โรงเรียน,Civil Aviation Training Center,"13.800615, 100.553301",education,education
Big office building,BTS headquarter,"13.804623, 100.556011",office,office
,Sun Tower,"13.808153, 100.558742",office,office
,TMB Head Office,"13.808279, 100.557782",office,office
,SJ Infinite One Business Complex,"13.809270, 100.559079",office,office
,Thai Airways International Head Office,"13.804619, 100.561180",office,office
,LAO PENG NGUAN TOWER,"13.806729, 100.559266",office,office
,Bangkok Broadcasting Television Channel 7,"13.803065, 100.556444",office,office
,Thairath Office Building,"13.804753, 100.558901",office,office
สวนสาธารณะ,Jatuchak Park,"13.808828, 100.556049",park,park
,Vachirabenjatas Park,"13.813199, 100.552985",park,park
,Queen Sirikit Park,"13.807470, 100.550547",park,park
Local Shopping,Jatuchak Weekend Market,"13.799852, 100.550929",shopping,shopping
ตลาด,Or Tor Kor Market,"13.797153, 100.547528",shopping,shopping
,JJ Mall,"13.802045, 100.549159",shopping,shopping
Big office building,Energy Complex,"13.819372, 100.557241",office,office
Future project,Grand Bangsue Interchange,"13.803644, 100.542163",extra Group (ไม่มีผลในการคำนวน แสดงผลในแผนที่เฉยๆ),future-project
,New Parliament,"13.796011, 100.517372",extra Group (ไม่มีผลในการคำนวน แสดงผลในแผนที่เฉยๆ),future-project
ห้างสรรพสินค้า,Tesco Lotus Pracha Chuen,"13.806264, 100.534107",shopping,shopping
ตลาด,Bang Sue Fresh Market,"13.800708, 100.534080",shopping,shopping
,Maniphiman Market,"13.806953, 100.531539",shopping,shopping
Big office building,SCG,"13.804869, 100.536860",office,office